\relax 
\providecommand\hyper@newdestlabel[2]{}
\providecommand\babel@aux[2]{}
\@nameuse{bbl@beforestart}
\catcode `"\active 
\providecommand\HyperFirstAtBeginDocument{\AtBeginDocument}
\HyperFirstAtBeginDocument{\ifx\hyper@anchor\@undefined
\global\let\oldcontentsline\contentsline
\gdef\contentsline#1#2#3#4{\oldcontentsline{#1}{#2}{#3}}
\global\let\oldnewlabel\newlabel
\gdef\newlabel#1#2{\newlabelxx{#1}#2}
\gdef\newlabelxx#1#2#3#4#5#6{\oldnewlabel{#1}{{#2}{#3}}}
\AtEndDocument{\ifx\hyper@anchor\@undefined
\let\contentsline\oldcontentsline
\let\newlabel\oldnewlabel
\fi}
\fi}
\global\let\hyper@last\relax 
\gdef\HyperFirstAtBeginDocument#1{#1}
\providecommand\HyField@AuxAddToFields[1]{}
\providecommand\HyField@AuxAddToCoFields[2]{}
\bibstyle{plain}
\babel@aux{brazil}{}
\citation{MendesSilva}
\citation{imageDatabases}
\citation{Kak2001}
\citation{markoe_2006}
\citation{markoe_2006}
\citation{markoe_2006}
\citation{markoe_2006}
\citation{Sakamoto2019}
\citation{Meyer2010}
\citation{MendesSilva}
\citation{InstitutoNacionaldocancer2008}
\citation{Baskar2012}
\citation{WHO2018}
\citation{Atun2015}
\citation{Mendez2018}
\citation{Barrett2009}
\@writefile{toc}{\contentsline {chapter}{\numberline {1}Introdução}{1}{chapter.1}\protected@file@percent }
\@writefile{lof}{\addvspace {10\p@ }}
\@writefile{lot}{\addvspace {10\p@ }}
\@writefile{toc}{\contentsline {section}{\numberline {1.1}O problema dos artefatos metálicos no planejamento radioterápico utilizando tomografia computadorizada}{1}{section.1.1}\protected@file@percent }
\citation{Barrett2009}
\citation{Giantsoudi2017}
\citation{markoe_2006}
\citation{Boas2012}
\citation{Wolford2015}
\citation{ObsdeOnco2019}
\citation{Chou2020}
\citation{Boas2011}
\citation{Meyer2010}
\citation{Meyer2012}
\citation{Liu2020}
\citation{Sakamoto2019}
\citation{Philips2011}
\citation{Canon2017}
\citation{GE2013}
\citation{Siemens2020}
\citation{MendesSilva}
\@writefile{toc}{\contentsline {section}{\numberline {1.2}A redução de artefatos metálicos no ambiente hospitalar}{3}{section.1.2}\protected@file@percent }
\citation{MendesSilva}
\@writefile{toc}{\contentsline {section}{\numberline {1.3}Objetivos}{4}{section.1.3}\protected@file@percent }
\@writefile{toc}{\contentsline {subsection}{\numberline {1.3.1}Objetivo Geral}{4}{subsection.1.3.1}\protected@file@percent }
\@writefile{toc}{\contentsline {subsection}{\numberline {1.3.2}Objetivos Específicos}{4}{subsection.1.3.2}\protected@file@percent }
\@writefile{toc}{\contentsline {section}{\numberline {1.4}Organização dos próximos capítulos}{5}{section.1.4}\protected@file@percent }
\citation{Bryan2009}
\citation{Bryan2009}
\citation{Bryan2009}
\@writefile{toc}{\contentsline {chapter}{\numberline {2}Fundamentação acerca de tomografia por projeções de raios X, retroprojeção e artefatos metálicos}{7}{chapter.2}\protected@file@percent }
\@writefile{lof}{\addvspace {10\p@ }}
\@writefile{lot}{\addvspace {10\p@ }}
\newlabel{chap:fundamentacao}{{2}{7}{Fundamentação acerca de tomografia por projeções de raios X, retroprojeção e artefatos metálicos}{chapter.2}{}}
\@writefile{toc}{\contentsline {section}{\numberline {2.1}Imageamento médico}{7}{section.2.1}\protected@file@percent }
\newlabel{sect:imagem}{{2.1}{7}{Imageamento médico}{section.2.1}{}}
\citation{universal}
\citation{universal}
\citation{Bryan2009}
\citation{Flint2011}
\citation{umbilicalRing}
\citation{umbilicalRing}
\@writefile{lof}{\contentsline {figure}{\numberline {2.1}{\ignorespaces Exemplo de imagem gerada por raio-x.}}{8}{figure.caption.4}\protected@file@percent }
\providecommand*\caption@xref[2]{\@setref\relax\@undefined{#1}}
\newlabel{fig:context_x-rays}{{2.1}{8}{Exemplo de imagem gerada por raio-x}{figure.caption.4}{}}
\citation{imageDatabases}
\citation{imageDatabases}
\citation{Gonzalez}
\citation{pucrs2014}
\@writefile{lof}{\contentsline {figure}{\numberline {2.2}{\ignorespaces Exemplo de imagem de raio-x com a presença de \textit  {piercings}.}}{9}{figure.caption.5}\protected@file@percent }
\newlabel{fig:piercing_x-rays}{{2.2}{9}{Exemplo de imagem de raio-x com a presença de \textit {piercings}}{figure.caption.5}{}}
\@writefile{lof}{\contentsline {figure}{\numberline {2.3}{\ignorespaces Escala de níveis de cinza}}{9}{figure.caption.6}\protected@file@percent }
\newlabel{fig:grayscale_colors}{{2.3}{9}{Escala de níveis de cinza}{figure.caption.6}{}}
\@writefile{lof}{\contentsline {figure}{\numberline {2.4}{\ignorespaces Exemplos de imagens binárias fora da área médica. É importante notar que os valores das imagens são representados aapenas em 2 cores: preto e branco. Muitas vezes essa distinção auxilia na detecção de objetos e detalhes que não seriam tão destacados em imagens em níveis de cinza, por exemplo. Fonte:~\cite  {imageDatabases}.\relax }}{9}{figure.caption.7}\protected@file@percent }
\newlabel{fig:binary_fig}{{2.4}{9}{Exemplos de imagens binárias fora da área médica. É importante notar que os valores das imagens são representados aapenas em 2 cores: preto e branco. Muitas vezes essa distinção auxilia na detecção de objetos e detalhes que não seriam tão destacados em imagens em níveis de cinza, por exemplo. Fonte:~\cite {imageDatabases}.\relax }{figure.caption.7}{}}
\citation{imageDatabases}
\citation{imageDatabases}
\citation{binary2003}
\citation{Gonzalez}
\@writefile{lof}{\contentsline {figure}{\numberline {2.5}{\ignorespaces Exemplos de imagens em escala de cinza}}{10}{figure.caption.8}\protected@file@percent }
\newlabel{fig:grayscale_fig}{{2.5}{10}{Exemplos de imagens em escala de cinza}{figure.caption.8}{}}
\citation{uwa1999}
\citation{unifesp2015}
\citation{Gonzalez}
\citation{Gonzalez}
\citation{Gonzalez}
\citation{Gonzalez}
\citation{markoe_2006}
\@writefile{lof}{\contentsline {figure}{\numberline {2.6}{\ignorespaces Exemplos de imagens coloridas}}{11}{figure.caption.9}\protected@file@percent }
\newlabel{fig:color_fig}{{2.6}{11}{Exemplos de imagens coloridas}{figure.caption.9}{}}
\citation{wiki_x_ray}
\citation{wiki_x_ray}
\citation{Gonzalez}
\citation{wiki_x_ray}
\citation{wiki_x_ray}
\citation{Gonzalez}
\@writefile{lof}{\contentsline {figure}{\numberline {2.7}{\ignorespaces Imagem de raio-x com objeto de alta densidade}}{12}{figure.caption.10}\protected@file@percent }
\newlabel{fig:left_hand}{{2.7}{12}{Imagem de raio-x com objeto de alta densidade}{figure.caption.10}{}}
\@writefile{toc}{\contentsline {section}{\numberline {2.2}Tomografia computadorizada}{12}{section.2.2}\protected@file@percent }
\newlabel{sect:ct}{{2.2}{12}{Tomografia computadorizada}{section.2.2}{}}
\@writefile{toc}{\contentsline {subsection}{\numberline {2.2.1}Transformada de Radon}{12}{subsection.2.2.1}\protected@file@percent }
\citation{Kak2001}
\citation{Kak2001}
\@writefile{lof}{\contentsline {figure}{\numberline {2.8}{\ignorespaces A evolução do imageamento médico}}{13}{figure.caption.11}\protected@file@percent }
\newlabel{fig:tomography}{{2.8}{13}{A evolução do imageamento médico}{figure.caption.11}{}}
\newlabel{eq:I_theta_t}{{2.2.1}{13}{Transformada de Radon}{subsection.2.2.1}{}}
\@writefile{lof}{\contentsline {figure}{\numberline {2.9}{\ignorespaces Visualização geométrica da transformada de Radon. Fonte:~\cite  {Kak2001}.\relax }}{14}{figure.caption.12}\protected@file@percent }
\newlabel{fig:radongeometric}{{2.9}{14}{Visualização geométrica da transformada de Radon. Fonte:~\cite {Kak2001}.\relax }{figure.caption.12}{}}
\newlabel{item:angle}{{3}{14}{Transformada de Radon}{Item.3}{}}
\newlabel{y_def}{{2.8}{15}{Transformada de Radon}{equation.2.2.8}{}}
\@writefile{toc}{\contentsline {subsection}{\numberline {2.2.2}Teorema dos cortes de Fourier}{15}{subsection.2.2.2}\protected@file@percent }
\newlabel{subsec_fourierTheorem}{{2.2.2}{15}{Teorema dos cortes de Fourier}{subsection.2.2.2}{}}
\newlabel{eq:Radon_parametrizada}{{2.12}{16}{Teorema dos cortes de Fourier}{equation.2.2.12}{}}
\newlabel{eq:r_theta}{{2.16}{16}{Teorema dos cortes de Fourier}{equation.2.2.16}{}}
\newlabel{eq:TF_bidimensional}{{2.18}{16}{Teorema dos cortes de Fourier}{equation.2.2.18}{}}
\citation{markoe_2006}
\citation{markoe_2006}
\citation{markoe_2006}
\citation{markoe_2006}
\citation{markoe_2006}
\citation{markoe_2006}
\newlabel{eq:r_equal_I}{{2.24}{17}{Teorema dos cortes de Fourier}{equation.2.2.24}{}}
\@writefile{toc}{\contentsline {section}{\numberline {2.3}Retroprojeção filtrada}{17}{section.2.3}\protected@file@percent }
\newlabel{sec:retroprojecao}{{2.3}{17}{Retroprojeção filtrada}{section.2.3}{}}
\citation{markoe_2006}
\citation{markoe_2006}
\citation{markoe_2006}
\citation{markoe_2006}
\@writefile{lof}{\contentsline {figure}{\numberline {2.10}{\ignorespaces Retroprojeção de uma figura quadrada no ângulo $\theta = 0$}}{18}{figure.caption.13}\protected@file@percent }
\newlabel{fig:square_projection}{{2.10}{18}{Retroprojeção de uma figura quadrada no ângulo $\theta = 0$}{figure.caption.13}{}}
\@writefile{lof}{\contentsline {figure}{\numberline {2.11}{\ignorespaces Retroprojeção de um losango no ângulo $\theta = 0$}}{18}{figure.caption.14}\protected@file@percent }
\newlabel{fig:losangle_projection}{{2.11}{18}{Retroprojeção de um losango no ângulo $\theta = 0$}{figure.caption.14}{}}
\@writefile{lof}{\contentsline {figure}{\numberline {2.12}{\ignorespaces Retroprojeção de um objeto quadrado uniforme em diversos ângulos.}}{19}{figure.caption.15}\protected@file@percent }
\newlabel{fig:square_projections}{{2.12}{19}{Retroprojeção de um objeto quadrado uniforme em diversos ângulos}{figure.caption.15}{}}
\@writefile{lof}{\contentsline {figure}{\numberline {2.13}{\ignorespaces Média das retroprojeções de um quadrado uniforme centralizado em 3 direções. vale notar que a imagem reconstruída possui regiões claras, vindas de picos nas projeções individuais que não existem na imagem original. As projeções mostradas na imagem equivalem às retroprojeções nos ângulos $\theta = 0^o$, $45^o$ ($\pi /4$) e $90^o$ ($\pi /2$), respectivamente. Fonte:~\cite  {markoe_2006}.\relax }}{19}{figure.caption.16}\protected@file@percent }
\newlabel{fig:square_avg_backprojections}{{2.13}{19}{Média das retroprojeções de um quadrado uniforme centralizado em 3 direções. vale notar que a imagem reconstruída possui regiões claras, vindas de picos nas projeções individuais que não existem na imagem original. As projeções mostradas na imagem equivalem às retroprojeções nos ângulos $\theta = 0^o$, $45^o$ ($\pi /4$) e $90^o$ ($\pi /2$), respectivamente. Fonte:~\cite {markoe_2006}.\relax }{figure.caption.16}{}}
\citation{markoe_2006}
\citation{markoe_2006}
\citation{markoe_2006}
\citation{markoe_2006}
\citation{markoe_2006}
\citation{markoe_2006}
\@writefile{lof}{\contentsline {figure}{\numberline {2.14}{\ignorespaces Média das retroprojeções de um quadrado uniforme centralizado em diversas direções. No primeiro caso (imagem da esquerda), tem-se uma reconstrução utilizando 10 ângulos diferentes. No segundo caso (imagem da direita), utiliza-se 17 direções diferentes. Fonte:~\cite  {markoe_2006}.\relax }}{20}{figure.caption.17}\protected@file@percent }
\newlabel{fig:square_multiple_angles}{{2.14}{20}{Média das retroprojeções de um quadrado uniforme centralizado em diversas direções. No primeiro caso (imagem da esquerda), tem-se uma reconstrução utilizando 10 ângulos diferentes. No segundo caso (imagem da direita), utiliza-se 17 direções diferentes. Fonte:~\cite {markoe_2006}.\relax }{figure.caption.17}{}}
\@writefile{lof}{\contentsline {figure}{\numberline {2.15}{\ignorespaces Média das retroprojeções de um quadrado uniforme centralizado em 500 direções. Nota-se que a imagem não teve umamelhora tão significativa, que era o esperado pela análise dos resultados anteriores, gerando uma imagem "borrada", desfocada e com uma definição ruim do objeto original, suas bordas e detalhes. Fonte:~\cite  {markoe_2006}.\relax }}{20}{figure.caption.18}\protected@file@percent }
\newlabel{fig:square_500_angles}{{2.15}{20}{Média das retroprojeções de um quadrado uniforme centralizado em 500 direções. Nota-se que a imagem não teve umamelhora tão significativa, que era o esperado pela análise dos resultados anteriores, gerando uma imagem "borrada", desfocada e com uma definição ruim do objeto original, suas bordas e detalhes. Fonte:~\cite {markoe_2006}.\relax }{figure.caption.18}{}}
\@writefile{lof}{\contentsline {figure}{\numberline {2.16}{\ignorespaces Comparação entre imagem original e imagem reconstruída.}}{20}{figure.caption.19}\protected@file@percent }
\newlabel{fig:square_500_angles_noise}{{2.16}{20}{Comparação entre imagem original e imagem reconstruída}{figure.caption.19}{}}
\@writefile{lof}{\contentsline {figure}{\numberline {2.17}{\ignorespaces Da esquerda para a direita temos a imagem original, a imagem reconstruída com retroprojeção filtrada e a imagem reconstruída apenas com o processo de retroprojeção simples, sem utilizar a etapa de filtragem em baixas frequências, que remove em grande partes o erro gerado durante o processo. Fonte:~\cite  {markoe_2006}.\relax }}{21}{figure.caption.20}\protected@file@percent }
\newlabel{fig:cycle}{{2.17}{21}{Da esquerda para a direita temos a imagem original, a imagem reconstruída com retroprojeção filtrada e a imagem reconstruída apenas com o processo de retroprojeção simples, sem utilizar a etapa de filtragem em baixas frequências, que remove em grande partes o erro gerado durante o processo. Fonte:~\cite {markoe_2006}.\relax }{figure.caption.20}{}}
\citation{amalgam}
\citation{harvard}
\citation{DeMan2000}
\citation{DeMan2000}
\citation{Boas2012}
\@writefile{toc}{\contentsline {section}{\numberline {2.4}Artefato metálico}{22}{section.2.4}\protected@file@percent }
\newlabel{sec:artefato}{{2.4}{22}{Artefato metálico}{section.2.4}{}}
\newlabel{percent}{{2.25}{22}{Artefato metálico}{equation.2.4.25}{}}
\citation{Boas2012}
\citation{Boas2012}
\citation{Boas2012}
\@writefile{lof}{\contentsline {figure}{\numberline {2.18}{\ignorespaces Imagem de Raio-X com a presença de artefatos metálicos}}{23}{figure.caption.21}\protected@file@percent }
\newlabel{fig:metalical_artefacts}{{2.18}{23}{Imagem de Raio-X com a presença de artefatos metálicos}{figure.caption.21}{}}
\citation{Boas2012}
\citation{Gjesteby2016}
\citation{Gjesteby2016}
\citation{Gjesteby2016}
\citation{Wagenaar2015}
\citation{Chilamkurthy2018}
\citation{van2014scikit}
\@writefile{toc}{\contentsline {chapter}{\numberline {3}Materiais e Métodos}{26}{chapter.3}\protected@file@percent }
\@writefile{lof}{\addvspace {10\p@ }}
\@writefile{lot}{\addvspace {10\p@ }}
\newlabel{chap:metodologia}{{3}{26}{Materiais e Métodos}{chapter.3}{}}
\@writefile{toc}{\contentsline {section}{\numberline {3.1}Banco de imagens de tomografia computadorizada}{26}{section.3.1}\protected@file@percent }
\newlabel{sec:dataset}{{3.1}{26}{Banco de imagens de tomografia computadorizada}{section.3.1}{}}
\@writefile{lot}{\contentsline {table}{\numberline {3.1}{\ignorespaces Tipos de tomógrafos utilizados para a aquisição do dataset\relax }}{26}{table.caption.22}\protected@file@percent }
\newlabel{tab:ct-dataset}{{3.1}{26}{Tipos de tomógrafos utilizados para a aquisição do dataset\relax }{table.caption.22}{}}
\citation{Sakamoto2019}
\citation{Sakamoto2019}
\citation{Sakamoto2019}
\@writefile{toc}{\contentsline {section}{\numberline {3.2}Algoritmo de reconstrução da imagem}{27}{section.3.2}\protected@file@percent }
\@writefile{toc}{\contentsline {section}{\numberline {3.3}Simulação de artefatos metálicos}{27}{section.3.3}\protected@file@percent }
\newlabel{sec:sim_artifact}{{3.3}{27}{Simulação de artefatos metálicos}{section.3.3}{}}
\newlabel{eq:mas}{{3.1}{27}{Simulação de artefatos metálicos}{equation.3.3.1}{}}
\citation{Kalender1987}
\@writefile{lof}{\contentsline {figure}{\numberline {3.1}{\ignorespaces Algoritmo de insercao do metal e artefatos metalicos, baseado em~\cite  {Sakamoto2019}.\relax }}{28}{figure.caption.23}\protected@file@percent }
\newlabel{fig:Insercao_metal}{{3.1}{28}{Algoritmo de insercao do metal e artefatos metalicos, baseado em~\cite {Sakamoto2019}.\relax }{figure.caption.23}{}}
\@writefile{toc}{\contentsline {section}{\numberline {3.4}Algoritmo de redução de artefatos metálicos}{28}{section.3.4}\protected@file@percent }
\@writefile{toc}{\contentsline {subsection}{\numberline {3.4.1}Linear Metal Artifact Reduction}{28}{subsection.3.4.1}\protected@file@percent }
\newlabel{sec:LMAR}{{3.4.1}{28}{Linear Metal Artifact Reduction}{subsection.3.4.1}{}}
\citation{Meyer2010}
\citation{Meyer2010}
\@writefile{lof}{\contentsline {figure}{\numberline {3.2}{\ignorespaces Descrição do algoritmo LMAR.\relax }}{29}{figure.caption.24}\protected@file@percent }
\newlabel{fig:LMAR}{{3.2}{29}{Descrição do algoritmo LMAR.\relax }{figure.caption.24}{}}
\@writefile{toc}{\contentsline {subsection}{\numberline {3.4.2}Normalized Metal Artifact Reduction}{29}{subsection.3.4.2}\protected@file@percent }
\newlabel{sec:NMAR}{{3.4.2}{29}{Normalized Metal Artifact Reduction}{subsection.3.4.2}{}}
\citation{Meyer2010}
\citation{Meyer2010}
\citation{MendesSilva}
\citation{MendesSilva}
\citation{MendesSilva}
\citation{MendesSilva}
\citation{Meyer2012}
\@writefile{lof}{\contentsline {figure}{\numberline {3.3}{\ignorespaces Descrição do algoritmo NMAR~\cite  {Meyer2010}.\relax }}{30}{figure.caption.25}\protected@file@percent }
\newlabel{fig:NMAR}{{3.3}{30}{Descrição do algoritmo NMAR~\cite {Meyer2010}.\relax }{figure.caption.25}{}}
\@writefile{toc}{\contentsline {subsection}{\numberline {3.4.3}Redução de artefato inspirado em~\cite  {MendesSilva}}{30}{subsection.3.4.3}\protected@file@percent }
\citation{MendesSilva}
\@writefile{lof}{\contentsline {figure}{\numberline {3.4}{\ignorespaces Descrição do algoritmo de redução de artefatos metálicos proposto em~\cite  {MendesSilva}.\relax }}{31}{figure.caption.26}\protected@file@percent }
\newlabel{fig:MAR}{{3.4}{31}{Descrição do algoritmo de redução de artefatos metálicos proposto em~\cite {MendesSilva}.\relax }{figure.caption.26}{}}
\citation{qtdesign}
\citation{harris2020array}
\citation{python-doc}
\citation{scikit-image}
\citation{python-doc}
\citation{python}
\@writefile{toc}{\contentsline {section}{\numberline {3.5}Desenvolvimento da interface gráfica}{32}{section.3.5}\protected@file@percent }
\citation{Wang2009}
\citation{Oxford2021}
\citation{Wang2009}
\@writefile{toc}{\contentsline {section}{\numberline {3.6}Análise dos dados}{33}{section.3.6}\protected@file@percent }
\newlabel{sec:dados}{{3.6}{33}{Análise dos dados}{section.3.6}{}}
\newlabel{eq:MSE}{{3.2}{33}{Análise dos dados}{equation.3.6.2}{}}
\newlabel{eq:SNR}{{3.3}{33}{Análise dos dados}{equation.3.6.3}{}}
\newlabel{eq:PSNR}{{3.4}{33}{Análise dos dados}{equation.3.6.4}{}}
\citation{Wang2004}
\newlabel{eq:SSIM_luminance}{{3.5}{34}{Análise dos dados}{equation.3.6.5}{}}
\newlabel{eq:SSIM_C1}{{3.6}{34}{Análise dos dados}{equation.3.6.6}{}}
\newlabel{eq:SSIM_contrast}{{3.7}{34}{Análise dos dados}{equation.3.6.7}{}}
\newlabel{eq:SSIM_structure}{{3.8}{34}{Análise dos dados}{equation.3.6.8}{}}
\newlabel{eq:SSIM_correl}{{3.9}{35}{Análise dos dados}{equation.3.6.9}{}}
\newlabel{eq:SSIM}{{3.10}{35}{Análise dos dados}{equation.3.6.10}{}}
\@writefile{toc}{\contentsline {chapter}{\numberline {4}Resultados e Discussões}{36}{chapter.4}\protected@file@percent }
\@writefile{lof}{\addvspace {10\p@ }}
\@writefile{lot}{\addvspace {10\p@ }}
\newlabel{chap:resultados}{{4}{36}{Resultados e Discussões}{chapter.4}{}}
\@writefile{toc}{\contentsline {section}{\numberline {4.1}Algoritmo de retroprojeção filtrada}{36}{section.4.1}\protected@file@percent }
\@writefile{lof}{\contentsline {figure}{\numberline {4.1}{\ignorespaces Fantoma de Shepp-Logan reconstruída com a retroprojecao filtrada}}{36}{figure.caption.27}\protected@file@percent }
\newlabel{fig:fbp_sl}{{4.1}{36}{Fantoma de Shepp-Logan reconstruída com a retroprojecao filtrada}{figure.caption.27}{}}
\@writefile{lof}{\contentsline {figure}{\numberline {4.2}{\ignorespaces Imagem de Tomografia reconstruída com a retroprojecao filtrada}}{37}{figure.caption.28}\protected@file@percent }
\newlabel{fig:fbp_ds}{{4.2}{37}{Imagem de Tomografia reconstruída com a retroprojecao filtrada}{figure.caption.28}{}}
\@writefile{toc}{\contentsline {section}{\numberline {4.2}Algoritmo de simulação de artefato metálico}{38}{section.4.2}\protected@file@percent }
\newlabel{sec:artifactSimulator}{{4.2}{38}{Algoritmo de simulação de artefato metálico}{section.4.2}{}}
\@writefile{lof}{\contentsline {figure}{\numberline {4.3}{\ignorespaces Imagem de Tomografia com artefato artificial inserido}}{38}{figure.caption.29}\protected@file@percent }
\newlabel{fig:MAS_tec_1-1}{{4.3}{38}{Imagem de Tomografia com artefato artificial inserido}{figure.caption.29}{}}
\@writefile{lof}{\contentsline {figure}{\numberline {4.4}{\ignorespaces Imagem de Tomografia com artefato artificial}}{38}{figure.caption.30}\protected@file@percent }
\newlabel{fig:MAS_tec_1-2}{{4.4}{38}{Imagem de Tomografia com artefato artificial}{figure.caption.30}{}}
\citation{Sakamoto2019}
\citation{Sakamoto2019}
\@writefile{lof}{\contentsline {figure}{\numberline {4.5}{\ignorespaces Imagem de Tomografia com amalgama dentaria simulada}}{39}{figure.caption.31}\protected@file@percent }
\newlabel{fig:mas_mono}{{4.5}{39}{Imagem de Tomografia com amalgama dentaria simulada}{figure.caption.31}{}}
\@writefile{lof}{\contentsline {figure}{\numberline {4.6}{\ignorespaces Imagem de Tomografia com amalgama dentaria simulada}}{40}{figure.caption.32}\protected@file@percent }
\newlabel{fig:mas_poly}{{4.6}{40}{Imagem de Tomografia com amalgama dentaria simulada}{figure.caption.32}{}}
\@writefile{lof}{\contentsline {figure}{\numberline {4.7}{\ignorespaces Imagem de Tomografia com artefato artificial}}{40}{figure.caption.33}\protected@file@percent }
\newlabel{fig:mas-dataset}{{4.7}{40}{Imagem de Tomografia com artefato artificial}{figure.caption.33}{}}
\@writefile{lof}{\contentsline {figure}{\numberline {4.8}{\ignorespaces Imagem de Tomografia com artefato artificial}}{41}{figure.caption.34}\protected@file@percent }
\newlabel{fig:mas-artifact}{{4.8}{41}{Imagem de Tomografia com artefato artificial}{figure.caption.34}{}}
\citation{Sakamoto2019}
\citation{Kalender1987}
\citation{Meyer2010}
\citation{Kalender1987}
\citation{Meyer2010}
\citation{Kalender1987}
\citation{Meyer2010}
\citation{Meyer2010}
\citation{MendesSilva}
\@writefile{toc}{\contentsline {section}{\numberline {4.3}Algoritmo de redução de artefato metálico}{42}{section.4.3}\protected@file@percent }
\newlabel{sec:artifactReduction}{{4.3}{42}{Algoritmo de redução de artefato metálico}{section.4.3}{}}
\@writefile{lof}{\contentsline {figure}{\numberline {4.9}{\ignorespaces Imagem de Tomografia com artefato artificial}}{43}{figure.caption.35}\protected@file@percent }
\newlabel{fig:CT284-original}{{4.9}{43}{Imagem de Tomografia com artefato artificial}{figure.caption.35}{}}
\@writefile{lof}{\contentsline {figure}{\numberline {4.10}{\ignorespaces Imagem de Tomografia com artefato artificial}}{43}{figure.caption.36}\protected@file@percent }
\newlabel{fig:CT284-LMAR_NMAR}{{4.10}{43}{Imagem de Tomografia com artefato artificial}{figure.caption.36}{}}
\citation{MendesSilva}
\citation{MendesSilva}
\@writefile{lof}{\contentsline {figure}{\numberline {4.11}{\ignorespaces Imagem de Tomografia com artefato artificial}}{44}{figure.caption.37}\protected@file@percent }
\newlabel{fig:CT284-shannon}{{4.11}{44}{Imagem de Tomografia com artefato artificial}{figure.caption.37}{}}
\citation{MendesSilva}
\citation{MendesSilva}
\@writefile{lof}{\contentsline {figure}{\numberline {4.12}{\ignorespaces Projeção obtida da imagem interpolada}}{45}{figure.caption.38}\protected@file@percent }
\newlabel{fig:Shannon-1}{{4.12}{45}{Projeção obtida da imagem interpolada}{figure.caption.38}{}}
\@writefile{lof}{\contentsline {figure}{\numberline {4.13}{\ignorespaces Projeção obtida da imagem interpolada}}{45}{figure.caption.39}\protected@file@percent }
\newlabel{fig:Shannon-2}{{4.13}{45}{Projeção obtida da imagem interpolada}{figure.caption.39}{}}
\citation{MendesSilva}
\citation{MendesSilva}
\@writefile{lof}{\contentsline {figure}{\numberline {4.14}{\ignorespaces Imagem de Tomografia com artefato artificial}}{46}{figure.caption.40}\protected@file@percent }
\newlabel{fig:CT284-linear}{{4.14}{46}{Imagem de Tomografia com artefato artificial}{figure.caption.40}{}}
\@writefile{lof}{\contentsline {figure}{\numberline {4.15}{\ignorespaces Imagem de Tomografia com artefato artificial}}{47}{figure.caption.41}\protected@file@percent }
\newlabel{fig:CT284-spline}{{4.15}{47}{Imagem de Tomografia com artefato artificial}{figure.caption.41}{}}
\@writefile{lot}{\contentsline {table}{\numberline {4.1}{\ignorespaces Erro quadrático médio para um, dois e três metais\relax }}{47}{table.caption.42}\protected@file@percent }
\newlabel{tab:MSE}{{4.1}{47}{Erro quadrático médio para um, dois e três metais\relax }{table.caption.42}{}}
\@writefile{lot}{\contentsline {table}{\numberline {4.2}{\ignorespaces Relação Sinal-Ruído para um, dois e três metais\relax }}{48}{table.caption.43}\protected@file@percent }
\newlabel{tab:SNR}{{4.2}{48}{Relação Sinal-Ruído para um, dois e três metais\relax }{table.caption.43}{}}
\@writefile{lot}{\contentsline {table}{\numberline {4.3}{\ignorespaces Relação Sinal-Ruído de pico para um, dois e três metais\relax }}{49}{table.caption.44}\protected@file@percent }
\newlabel{tab:PSNR}{{4.3}{49}{Relação Sinal-Ruído de pico para um, dois e três metais\relax }{table.caption.44}{}}
\@writefile{lot}{\contentsline {table}{\numberline {4.4}{\ignorespaces Índice de similaridade estrutural para um, dois e três metais\relax }}{49}{table.caption.45}\protected@file@percent }
\newlabel{tab:SSIM}{{4.4}{49}{Índice de similaridade estrutural para um, dois e três metais\relax }{table.caption.45}{}}
\@writefile{toc}{\contentsline {section}{\numberline {4.4}Interface gráfica}{51}{section.4.4}\protected@file@percent }
\newlabel{sec:gui}{{4.4}{51}{Interface gráfica}{section.4.4}{}}
\@writefile{toc}{\contentsline {subsection}{\numberline {4.4.1}Funcionalidades implementadas}{51}{subsection.4.4.1}\protected@file@percent }
\@writefile{toc}{\contentsline {subsection}{\numberline {4.4.2}Visualização inicial da ferramenta}{52}{subsection.4.4.2}\protected@file@percent }
\@writefile{toc}{\contentsline {subsection}{\numberline {4.4.3}Importando imagens}{52}{subsection.4.4.3}\protected@file@percent }
\newlabel{subsec_gui_import}{{4.4.3}{52}{Importando imagens}{subsection.4.4.3}{}}
\@writefile{lof}{\contentsline {figure}{\numberline {4.16}{\ignorespaces Tela visualizada pelo usuário assim que o programa é iniciado.\relax }}{53}{figure.caption.46}\protected@file@percent }
\newlabel{fig:initial_tab}{{4.16}{53}{Tela visualizada pelo usuário assim que o programa é iniciado.\relax }{figure.caption.46}{}}
\@writefile{lof}{\contentsline {figure}{\numberline {4.17}{\ignorespaces Aba "\textit  {Import}" após adicionar uma imagem à interface.\relax }}{53}{figure.caption.47}\protected@file@percent }
\newlabel{fig:import_tab}{{4.17}{53}{Aba "\textit {Import}" após adicionar uma imagem à interface.\relax }{figure.caption.47}{}}
\@writefile{toc}{\contentsline {subsection}{\numberline {4.4.4}Radon e Iradon}{54}{subsection.4.4.4}\protected@file@percent }
\newlabel{subsec_gui_transform}{{4.4.4}{54}{Radon e Iradon}{subsection.4.4.4}{}}
\@writefile{lof}{\contentsline {figure}{\numberline {4.18}{\ignorespaces Aba \textit  {Transform} antes de realizar a transformada da imagem.\relax }}{54}{figure.caption.48}\protected@file@percent }
\newlabel{fig:radon_tab}{{4.18}{54}{Aba \textit {Transform} antes de realizar a transformada da imagem.\relax }{figure.caption.48}{}}
\@writefile{lof}{\contentsline {figure}{\numberline {4.19}{\ignorespaces Aba \textit  {Transform} após realizar a transformada da imagem.\relax }}{55}{figure.caption.49}\protected@file@percent }
\newlabel{fig:iradon_tab}{{4.19}{55}{Aba \textit {Transform} após realizar a transformada da imagem.\relax }{figure.caption.49}{}}
\@writefile{toc}{\contentsline {subsection}{\numberline {4.4.5}Adicionando artefatos}{55}{subsection.4.4.5}\protected@file@percent }
\newlabel{subsec_gui_addArtifact}{{4.4.5}{55}{Adicionando artefatos}{subsection.4.4.5}{}}
\@writefile{lof}{\contentsline {figure}{\numberline {4.20}{\ignorespaces Aparência da interface na aba \textit  {Add Artifact} utilizando uma imagem do tipo dicom.\relax }}{56}{figure.caption.50}\protected@file@percent }
\newlabel{fig:addArtifact_tab}{{4.20}{56}{Aparência da interface na aba \textit {Add Artifact} utilizando uma imagem do tipo dicom.\relax }{figure.caption.50}{}}
\@writefile{lof}{\contentsline {figure}{\numberline {4.21}{\ignorespaces Imagem extraída de um arquivo do tipo dicom durante o processo de adição de artefatos metálicos. a) Imagem Originaç, antes de realizar a adição. b)Imagem após adicionar o artefato, em seu domínio original. c)Sinograma da imagem, que é visualizado caso o usuário já esteja nesse domínio.\relax }}{57}{figure.caption.51}\protected@file@percent }
\newlabel{fig:addArtifactEx}{{4.21}{57}{Imagem extraída de um arquivo do tipo dicom durante o processo de adição de artefatos metálicos. a) Imagem Originaç, antes de realizar a adição. b)Imagem após adicionar o artefato, em seu domínio original. c)Sinograma da imagem, que é visualizado caso o usuário já esteja nesse domínio.\relax }{figure.caption.51}{}}
\@writefile{toc}{\contentsline {subsection}{\numberline {4.4.6}Definindo um \textit  {threshold}}{57}{subsection.4.4.6}\protected@file@percent }
\newlabel{subsec_gui_threshold}{{4.4.6}{57}{Definindo um \textit {threshold}}{subsection.4.4.6}{}}
\@writefile{lof}{\contentsline {figure}{\numberline {4.22}{\ignorespaces Aba \textit  {Threshold} da interface desenvolvida, com imagem já importada.\relax }}{57}{figure.caption.52}\protected@file@percent }
\newlabel{fig:threshold_tab}{{4.22}{57}{Aba \textit {Threshold} da interface desenvolvida, com imagem já importada.\relax }{figure.caption.52}{}}
\citation{harris2020array}
\citation{opencv}
\@writefile{toc}{\contentsline {subsection}{\numberline {4.4.7}Realizando a interpolação da região alterada}{58}{subsection.4.4.7}\protected@file@percent }
\newlabel{subsec_gui_interpolation}{{4.4.7}{58}{Realizando a interpolação da região alterada}{subsection.4.4.7}{}}
\@writefile{lof}{\contentsline {figure}{\numberline {4.23}{\ignorespaces Aba \textit  {Interpolation} da interface desenvolvida, com artefato simulado já adicionado à imagem.\relax }}{58}{figure.caption.53}\protected@file@percent }
\newlabel{fig:interpolation_tab}{{4.23}{58}{Aba \textit {Interpolation} da interface desenvolvida, com artefato simulado já adicionado à imagem.\relax }{figure.caption.53}{}}
\@writefile{toc}{\contentsline {subsection}{\numberline {4.4.8}Salvando imagem e exportando dados}{58}{subsection.4.4.8}\protected@file@percent }
\newlabel{subsec_gui_save}{{4.4.8}{58}{Salvando imagem e exportando dados}{subsection.4.4.8}{}}
\citation{opencv}
\@writefile{lof}{\contentsline {figure}{\numberline {4.24}{\ignorespaces Aba \textit  {Save} da interface, no caso de uma imagem previamente importada e o metal identificado.\relax }}{60}{figure.caption.54}\protected@file@percent }
\newlabel{fig:save_tab}{{4.24}{60}{Aba \textit {Save} da interface, no caso de uma imagem previamente importada e o metal identificado.\relax }{figure.caption.54}{}}
\@writefile{lof}{\contentsline {figure}{\numberline {4.25}{\ignorespaces Imagem resultante exportada em formato PNG.\relax }}{61}{figure.caption.55}\protected@file@percent }
\newlabel{fig:testing_result}{{4.25}{61}{Imagem resultante exportada em formato PNG.\relax }{figure.caption.55}{}}
\@writefile{toc}{\contentsline {subsection}{\numberline {4.4.9}Pontos de destaque e informações adicionais}{61}{subsection.4.4.9}\protected@file@percent }
\@writefile{lof}{\contentsline {figure}{\numberline {4.26}{\ignorespaces Exemplo de diferença gerada pelo uso da funcionalidade de alterar as bordas da imagem, gerando um contraste visivelmente maior e facilitando a identificação de características da imagem durante a realização dos procedimentos. a) Imagem sem realizar nenhuma conversão. b)Imagem após realizar a conversão da borda. c)Imagem após conversão para a escala de Hounsfield.\relax }}{62}{figure.caption.56}\protected@file@percent }
\newlabel{fig:convert_ex}{{4.26}{62}{Exemplo de diferença gerada pelo uso da funcionalidade de alterar as bordas da imagem, gerando um contraste visivelmente maior e facilitando a identificação de características da imagem durante a realização dos procedimentos. a) Imagem sem realizar nenhuma conversão. b)Imagem após realizar a conversão da borda. c)Imagem após conversão para a escala de Hounsfield.\relax }{figure.caption.56}{}}
\@writefile{lof}{\contentsline {figure}{\numberline {4.27}{\ignorespaces Exemplo de situação em que a tentativa de conversão das bordas gera resultados indesejados na imagem, devido à existência de pixels de baixa intensidade dentro na imagem. Nesse caso, se trata de uma imagem em formato numpy (.npy) que possui artefatos gerados anteriormente, o que reduziu ainda mais a escala disponível para armazenar detalhes importantes e depositou grande parte das informações nos níveis mais baixos de intensidade.\relax }}{63}{figure.caption.57}\protected@file@percent }
\newlabel{fig:convert_error_ex}{{4.27}{63}{Exemplo de situação em que a tentativa de conversão das bordas gera resultados indesejados na imagem, devido à existência de pixels de baixa intensidade dentro na imagem. Nesse caso, se trata de uma imagem em formato numpy (.npy) que possui artefatos gerados anteriormente, o que reduziu ainda mais a escala disponível para armazenar detalhes importantes e depositou grande parte das informações nos níveis mais baixos de intensidade.\relax }{figure.caption.57}{}}
\@writefile{toc}{\contentsline {subsection}{\numberline {4.4.10}Falhas identificadas e pontos de melhoria}{63}{subsection.4.4.10}\protected@file@percent }
\newlabel{subsec_FailsAndImprovements}{{4.4.10}{63}{Falhas identificadas e pontos de melhoria}{subsection.4.4.10}{}}
\citation{Sakamoto2019}
\citation{Zhang2018}
\citation{Herman1979}
\citation{MendesSilva}
\@writefile{toc}{\contentsline {chapter}{\numberline {5}Conclusão}{64}{chapter.5}\protected@file@percent }
\@writefile{lof}{\addvspace {10\p@ }}
\@writefile{lot}{\addvspace {10\p@ }}
\newlabel{chap:conclusao}{{5}{64}{Conclusão}{chapter.5}{}}
\bibdata{referencias}
\bibcite{Atun2015}{1}
\bibcite{Barrett2009}{2}
\bibcite{Baskar2012}{3}
\bibcite{umbilicalRing}{4}
\bibcite{wiki_x_ray}{5}
\bibcite{Boas2011}{6}
\bibcite{Boas2012}{7}
\bibcite{Bryan2009}{8}
\bibcite{Chilamkurthy2018}{9}
\bibcite{Chou2020}{10}
\bibcite{qtdesign}{11}
\bibcite{ObsdeOnco2019}{12}
\bibcite{MendesSilva}{13}
\bibcite{Oxford2021}{14}
\bibcite{universal}{15}
\bibcite{imageDatabases}{16}
\bibcite{unifesp2015}{17}
\bibcite{binary2003}{18}
\bibcite{python-doc}{19}
\bibcite{Giantsoudi2017}{20}
\bibcite{Gjesteby2016}{21}
\bibcite{Gonzalez}{22}
\bibcite{harris2020array}{23}
\bibcite{GE2013}{24}
\bibcite{Philips2011}{25}
\bibcite{Siemens2020}{26}
\bibcite{Herman1979}{27}
\bibcite{InstitutoNacionaldocancer2008}{28}
\bibcite{Kak2001}{29}
\bibcite{Kalender1987}{30}
\bibcite{Flint2011}{31}
\bibcite{Liu2020}{32}
\bibcite{DeMan2000}{33}
\bibcite{markoe_2006}{34}
\bibcite{Mendez2018}{35}
\bibcite{Meyer2010}{36}
\bibcite{Meyer2012}{37}
\bibcite{pucrs2014}{38}
\bibcite{uwa1999}{39}
\bibcite{opencv}{40}
\bibcite{WHO2018}{41}
\bibcite{amalgam}{42}
\bibcite{Sakamoto2019}{43}
\bibcite{harvard}{44}
\bibcite{Canon2017}{45}
\bibcite{van2014scikit}{46}
\bibcite{scikit-image}{47}
\bibcite{python}{48}
\bibcite{Wagenaar2015}{49}
\bibcite{Wang2009}{50}
\bibcite{Wang2004}{51}
\bibcite{Wolford2015}{52}
\bibcite{Zhang2018}{53}
\citation{Sakamoto2019}
\citation{Herman1979}
\citation{Zhang2018}
\@writefile{toc}{\contentsline {section}{\numberline {.1}Descrição matemática do algoritmo de simulação de artefatos metálicos}{71}{section.Alph0.1}\protected@file@percent }
\newlabel{ap:MAS}{{.1}{71}{Descrição matemática do algoritmo de simulação de artefatos metálicos}{section.Alph0.1}{}}
\newlabel{eq:mono}{{1}{71}{Descrição matemática do algoritmo de simulação de artefatos metálicos}{equation.Alph0.1.1}{}}
\newlabel{eq:poli}{{3}{71}{Descrição matemática do algoritmo de simulação de artefatos metálicos}{equation.Alph0.1.3}{}}
\newlabel{eq:coef_massa}{{7}{72}{Descrição matemática do algoritmo de simulação de artefatos metálicos}{equation.Alph0.1.7}{}}
\citation{Zhang2018}
\citation{Sakamoto2019}
\citation{Herman1979}
\newlabel{eq:mas}{{11}{73}{Descrição matemática do algoritmo de simulação de artefatos metálicos}{equation.Alph0.1.11}{}}
\newlabel{eq:mas_2}{{12}{73}{Descrição matemática do algoritmo de simulação de artefatos metálicos}{equation.Alph0.1.12}{}}
\newlabel{LastPage}{{}{74}{}{page.74}{}}
\xdef\lastpage@lastpage{74}
\xdef\lastpage@lastpageHy{74}
\gdef \@abspage@last{91}
