\BOOKMARK [0][-]{chapter.1}{\376\377\000I\000n\000t\000r\000o\000d\000u\000\347\000\343\000o}{}% 1
\BOOKMARK [1][-]{section.1.1}{\376\377\000O\000\040\000p\000r\000o\000b\000l\000e\000m\000a\000\040\000d\000o\000s\000\040\000a\000r\000t\000e\000f\000a\000t\000o\000s\000\040\000m\000e\000t\000\341\000l\000i\000c\000o\000s\000\040\000n\000o\000\040\000p\000l\000a\000n\000e\000j\000a\000m\000e\000n\000t\000o\000\040\000r\000a\000d\000i\000o\000t\000e\000r\000\341\000p\000i\000c\000o\000\040\000u\000t\000i\000l\000i\000z\000a\000n\000d\000o\000\040\000t\000o\000m\000o\000g\000r\000a\000f\000i\000a\000\040\000c\000o\000m\000p\000u\000t\000a\000d\000o\000r\000i\000z\000a\000d\000a}{chapter.1}% 2
\BOOKMARK [1][-]{section.1.2}{\376\377\000A\000\040\000r\000e\000d\000u\000\347\000\343\000o\000\040\000d\000e\000\040\000a\000r\000t\000e\000f\000a\000t\000o\000s\000\040\000m\000e\000t\000\341\000l\000i\000c\000o\000s\000\040\000n\000o\000\040\000a\000m\000b\000i\000e\000n\000t\000e\000\040\000h\000o\000s\000p\000i\000t\000a\000l\000a\000r}{chapter.1}% 3
\BOOKMARK [1][-]{section.1.3}{\376\377\000O\000b\000j\000e\000t\000i\000v\000o\000s}{chapter.1}% 4
\BOOKMARK [2][-]{subsection.1.3.1}{\376\377\000O\000b\000j\000e\000t\000i\000v\000o\000\040\000G\000e\000r\000a\000l}{section.1.3}% 5
\BOOKMARK [2][-]{subsection.1.3.2}{\376\377\000O\000b\000j\000e\000t\000i\000v\000o\000s\000\040\000E\000s\000p\000e\000c\000\355\000f\000i\000c\000o\000s}{section.1.3}% 6
\BOOKMARK [1][-]{section.1.4}{\376\377\000O\000r\000g\000a\000n\000i\000z\000a\000\347\000\343\000o\000\040\000d\000o\000s\000\040\000p\000r\000\363\000x\000i\000m\000o\000s\000\040\000c\000a\000p\000\355\000t\000u\000l\000o\000s}{chapter.1}% 7
\BOOKMARK [0][-]{chapter.2}{\376\377\000F\000u\000n\000d\000a\000m\000e\000n\000t\000a\000\347\000\343\000o\000\040\000a\000c\000e\000r\000c\000a\000\040\000d\000e\000\040\000t\000o\000m\000o\000g\000r\000a\000f\000i\000a\000\040\000p\000o\000r\000\040\000p\000r\000o\000j\000e\000\347\000\365\000e\000s\000\040\000d\000e\000\040\000r\000a\000i\000o\000s\000\040\000X\000,\000\040\000r\000e\000t\000r\000o\000p\000r\000o\000j\000e\000\347\000\343\000o\000\040\000e\000\040\000a\000r\000t\000e\000f\000a\000t\000o\000s\000\040\000m\000e\000t\000\341\000l\000i\000c\000o\000s}{}% 8
\BOOKMARK [1][-]{section.2.1}{\376\377\000I\000m\000a\000g\000e\000a\000m\000e\000n\000t\000o\000\040\000m\000\351\000d\000i\000c\000o}{chapter.2}% 9
\BOOKMARK [1][-]{section.2.2}{\376\377\000T\000o\000m\000o\000g\000r\000a\000f\000i\000a\000\040\000c\000o\000m\000p\000u\000t\000a\000d\000o\000r\000i\000z\000a\000d\000a}{chapter.2}% 10
\BOOKMARK [2][-]{subsection.2.2.1}{\376\377\000T\000r\000a\000n\000s\000f\000o\000r\000m\000a\000d\000a\000\040\000d\000e\000\040\000R\000a\000d\000o\000n}{section.2.2}% 11
\BOOKMARK [2][-]{subsection.2.2.2}{\376\377\000T\000e\000o\000r\000e\000m\000a\000\040\000d\000o\000s\000\040\000c\000o\000r\000t\000e\000s\000\040\000d\000e\000\040\000F\000o\000u\000r\000i\000e\000r}{section.2.2}% 12
\BOOKMARK [1][-]{section.2.3}{\376\377\000R\000e\000t\000r\000o\000p\000r\000o\000j\000e\000\347\000\343\000o\000\040\000f\000i\000l\000t\000r\000a\000d\000a}{chapter.2}% 13
\BOOKMARK [1][-]{section.2.4}{\376\377\000A\000r\000t\000e\000f\000a\000t\000o\000\040\000m\000e\000t\000\341\000l\000i\000c\000o}{chapter.2}% 14
\BOOKMARK [0][-]{chapter.3}{\376\377\000M\000a\000t\000e\000r\000i\000a\000i\000s\000\040\000e\000\040\000M\000\351\000t\000o\000d\000o\000s}{}% 15
\BOOKMARK [1][-]{section.3.1}{\376\377\000B\000a\000n\000c\000o\000\040\000d\000e\000\040\000i\000m\000a\000g\000e\000n\000s\000\040\000d\000e\000\040\000t\000o\000m\000o\000g\000r\000a\000f\000i\000a\000\040\000c\000o\000m\000p\000u\000t\000a\000d\000o\000r\000i\000z\000a\000d\000a}{chapter.3}% 16
\BOOKMARK [1][-]{section.3.2}{\376\377\000A\000l\000g\000o\000r\000i\000t\000m\000o\000\040\000d\000e\000\040\000r\000e\000c\000o\000n\000s\000t\000r\000u\000\347\000\343\000o\000\040\000d\000a\000\040\000i\000m\000a\000g\000e\000m}{chapter.3}% 17
\BOOKMARK [1][-]{section.3.3}{\376\377\000S\000i\000m\000u\000l\000a\000\347\000\343\000o\000\040\000d\000e\000\040\000a\000r\000t\000e\000f\000a\000t\000o\000s\000\040\000m\000e\000t\000\341\000l\000i\000c\000o\000s}{chapter.3}% 18
\BOOKMARK [1][-]{section.3.4}{\376\377\000A\000l\000g\000o\000r\000i\000t\000m\000o\000\040\000d\000e\000\040\000r\000e\000d\000u\000\347\000\343\000o\000\040\000d\000e\000\040\000a\000r\000t\000e\000f\000a\000t\000o\000s\000\040\000m\000e\000t\000\341\000l\000i\000c\000o\000s}{chapter.3}% 19
\BOOKMARK [2][-]{subsection.3.4.1}{\376\377\000L\000i\000n\000e\000a\000r\000\040\000M\000e\000t\000a\000l\000\040\000A\000r\000t\000i\000f\000a\000c\000t\000\040\000R\000e\000d\000u\000c\000t\000i\000o\000n}{section.3.4}% 20
\BOOKMARK [2][-]{subsection.3.4.2}{\376\377\000N\000o\000r\000m\000a\000l\000i\000z\000e\000d\000\040\000M\000e\000t\000a\000l\000\040\000A\000r\000t\000i\000f\000a\000c\000t\000\040\000R\000e\000d\000u\000c\000t\000i\000o\000n}{section.3.4}% 21
\BOOKMARK [2][-]{subsection.3.4.3}{\376\377\000R\000e\000d\000u\000\347\000\343\000o\000\040\000d\000e\000\040\000a\000r\000t\000e\000f\000a\000t\000o\000\040\000i\000n\000s\000p\000i\000r\000a\000d\000o\000\040\000e\000m\000\040\000M\000e\000n\000d\000e\000s\000S\000i\000l\000v\000a}{section.3.4}% 22
\BOOKMARK [1][-]{section.3.5}{\376\377\000D\000e\000s\000e\000n\000v\000o\000l\000v\000i\000m\000e\000n\000t\000o\000\040\000d\000a\000\040\000i\000n\000t\000e\000r\000f\000a\000c\000e\000\040\000g\000r\000\341\000f\000i\000c\000a}{chapter.3}% 23
\BOOKMARK [1][-]{section.3.6}{\376\377\000A\000n\000\341\000l\000i\000s\000e\000\040\000d\000o\000s\000\040\000d\000a\000d\000o\000s}{chapter.3}% 24
\BOOKMARK [0][-]{chapter.4}{\376\377\000R\000e\000s\000u\000l\000t\000a\000d\000o\000s\000\040\000e\000\040\000D\000i\000s\000c\000u\000s\000s\000\365\000e\000s}{}% 25
\BOOKMARK [1][-]{section.4.1}{\376\377\000A\000l\000g\000o\000r\000i\000t\000m\000o\000\040\000d\000e\000\040\000r\000e\000t\000r\000o\000p\000r\000o\000j\000e\000\347\000\343\000o\000\040\000f\000i\000l\000t\000r\000a\000d\000a}{chapter.4}% 26
\BOOKMARK [1][-]{section.4.2}{\376\377\000A\000l\000g\000o\000r\000i\000t\000m\000o\000\040\000d\000e\000\040\000s\000i\000m\000u\000l\000a\000\347\000\343\000o\000\040\000d\000e\000\040\000a\000r\000t\000e\000f\000a\000t\000o\000\040\000m\000e\000t\000\341\000l\000i\000c\000o}{chapter.4}% 27
\BOOKMARK [1][-]{section.4.3}{\376\377\000A\000l\000g\000o\000r\000i\000t\000m\000o\000\040\000d\000e\000\040\000r\000e\000d\000u\000\347\000\343\000o\000\040\000d\000e\000\040\000a\000r\000t\000e\000f\000a\000t\000o\000\040\000m\000e\000t\000\341\000l\000i\000c\000o}{chapter.4}% 28
\BOOKMARK [1][-]{section.4.4}{\376\377\000I\000n\000t\000e\000r\000f\000a\000c\000e\000\040\000g\000r\000\341\000f\000i\000c\000a}{chapter.4}% 29
\BOOKMARK [2][-]{subsection.4.4.1}{\376\377\000F\000u\000n\000c\000i\000o\000n\000a\000l\000i\000d\000a\000d\000e\000s\000\040\000i\000m\000p\000l\000e\000m\000e\000n\000t\000a\000d\000a\000s}{section.4.4}% 30
\BOOKMARK [2][-]{subsection.4.4.2}{\376\377\000V\000i\000s\000u\000a\000l\000i\000z\000a\000\347\000\343\000o\000\040\000i\000n\000i\000c\000i\000a\000l\000\040\000d\000a\000\040\000f\000e\000r\000r\000a\000m\000e\000n\000t\000a}{section.4.4}% 31
\BOOKMARK [2][-]{subsection.4.4.3}{\376\377\000I\000m\000p\000o\000r\000t\000a\000n\000d\000o\000\040\000i\000m\000a\000g\000e\000n\000s}{section.4.4}% 32
\BOOKMARK [2][-]{subsection.4.4.4}{\376\377\000R\000a\000d\000o\000n\000\040\000e\000\040\000I\000r\000a\000d\000o\000n}{section.4.4}% 33
\BOOKMARK [2][-]{subsection.4.4.5}{\376\377\000A\000d\000i\000c\000i\000o\000n\000a\000n\000d\000o\000\040\000a\000r\000t\000e\000f\000a\000t\000o\000s}{section.4.4}% 34
\BOOKMARK [2][-]{subsection.4.4.6}{\376\377\000D\000e\000f\000i\000n\000i\000n\000d\000o\000\040\000u\000m\000\040\000t\000h\000r\000e\000s\000h\000o\000l\000d}{section.4.4}% 35
\BOOKMARK [2][-]{subsection.4.4.7}{\376\377\000R\000e\000a\000l\000i\000z\000a\000n\000d\000o\000\040\000a\000\040\000i\000n\000t\000e\000r\000p\000o\000l\000a\000\347\000\343\000o\000\040\000d\000a\000\040\000r\000e\000g\000i\000\343\000o\000\040\000a\000l\000t\000e\000r\000a\000d\000a}{section.4.4}% 36
\BOOKMARK [2][-]{subsection.4.4.8}{\376\377\000S\000a\000l\000v\000a\000n\000d\000o\000\040\000i\000m\000a\000g\000e\000m\000\040\000e\000\040\000e\000x\000p\000o\000r\000t\000a\000n\000d\000o\000\040\000d\000a\000d\000o\000s}{section.4.4}% 37
\BOOKMARK [2][-]{subsection.4.4.9}{\376\377\000P\000o\000n\000t\000o\000s\000\040\000d\000e\000\040\000d\000e\000s\000t\000a\000q\000u\000e\000\040\000e\000\040\000i\000n\000f\000o\000r\000m\000a\000\347\000\365\000e\000s\000\040\000a\000d\000i\000c\000i\000o\000n\000a\000i\000s}{section.4.4}% 38
\BOOKMARK [2][-]{subsection.4.4.10}{\376\377\000F\000a\000l\000h\000a\000s\000\040\000i\000d\000e\000n\000t\000i\000f\000i\000c\000a\000d\000a\000s\000\040\000e\000\040\000p\000o\000n\000t\000o\000s\000\040\000d\000e\000\040\000m\000e\000l\000h\000o\000r\000i\000a}{section.4.4}% 39
\BOOKMARK [0][-]{chapter.5}{\376\377\000C\000o\000n\000c\000l\000u\000s\000\343\000o}{}% 40
\BOOKMARK [1][-]{section.Alph0.1}{\376\377\000D\000e\000s\000c\000r\000i\000\347\000\343\000o\000\040\000m\000a\000t\000e\000m\000\341\000t\000i\000c\000a\000\040\000d\000o\000\040\000a\000l\000g\000o\000r\000i\000t\000m\000o\000\040\000d\000e\000\040\000s\000i\000m\000u\000l\000a\000\347\000\343\000o\000\040\000d\000e\000\040\000a\000r\000t\000e\000f\000a\000t\000o\000s\000\040\000m\000e\000t\000\341\000l\000i\000c\000o\000s}{chapter.5}% 41
