\babel@toc {brazil}{}
\beamer@sectionintoc {1}{Introdução}{3}{0}{1}
\beamer@sectionintoc {2}{Objetivos}{6}{0}{2}
\beamer@sectionintoc {3}{Metodologia}{9}{0}{3}
\beamer@sectionintoc {4}{Resultados}{19}{0}{4}
\beamer@sectionintoc {5}{Referências}{29}{0}{5}
