\babel@toc {brazil}{}
\beamer@sectionintoc {1}{Introdução}{3}{0}{1}
\beamer@sectionintoc {2}{Objetivos}{9}{0}{2}
\beamer@sectionintoc {3}{Fundamentação Teórica}{11}{0}{3}
\beamer@sectionintoc {4}{Justificativa}{18}{0}{4}
\beamer@sectionintoc {5}{Metodologia}{21}{0}{5}
\beamer@sectionintoc {6}{Desenvolvimento}{23}{0}{6}
\beamer@sectionintoc {7}{Resultados}{29}{0}{7}
\beamer@sectionintoc {8}{Cronograma TCC2}{34}{0}{8}
\beamer@sectionintoc {9}{Referências}{36}{0}{9}
